{
  "client_secret": "nosenpaithisisoursecret",
  "client_hostname": "0.0.0.0", // "0.0.0.0" is the default and binds to everything
  "client_port": 443, // 443 is recommended if possible
  "client_external_port": 0,   //443 is recommended; This port will be send to mdah-backend.
                               //You need to forward this to the client_port in your router; This is optional
  "threads": 16,
  "graceful_shutdown_wait_seconds": 60, // Time from graceful shutdown start to force quit
                                        // This rounds down to 15-second increments
  "max_cache_size_in_mebibytes": 80000,
  "max_kilobits_per_second": 0, // 0 disables max brust limiting
  "max_mebibytes_per_hour": 0, // 0 disables hourly bandwidth limiting
  "web_settings": { //delete this block to disable webui
    "ui_hostname": "127.0.0.1", // "127.0.0.1" is the default and binds to localhost only
    "ui_port": 8080
  }
}
